%YAML 1.1
%TAG !u! tag:unity3d.com,2011:
--- !u!60 &4619612702347733727
PolygonCollider2D:
  m_ObjectHideFlags: 0
  m_CorrespondingSourceObject: {fileID: 0}
  m_PrefabInstance: {fileID: 0}
  m_PrefabAsset: {fileID: 0}
  m_GameObject: {fileID: 1909185375474607931}
  m_Enabled: 1
  m_Density: 1
  m_Material: {fileID: 0}
  m_IsTrigger: 0
  m_UsedByEffector: 0
  m_UsedByComposite: 0
  m_Offset: {x: 0, y: 0}
  m_SpriteTilingProperty:
    border: {x: 0, y: 0, z: 0, w: 0}
    pivot: {x: 0.5, y: 0.5}
    oldSize: {x: 1.28, y: 1.28}
    newSize: {x: 1, y: 1}
    adaptiveTilingThreshold: 0.5
    drawMode: 0
    adaptiveTiling: 0
  m_AutoTiling: 0
  m_Points:
    m_Paths:
    - - {x: -0.21882775, y: 0.15928859}
      - {x: -0.34101453, y: 0.121673375}
      - {x: -0.3398671, y: -0.15835181}
      - {x: -0.28125978, y: -0.6416296}
      - {x: 0.28124103, y: -0.6396922}
      - {x: 0.34013122, y: -0.17608579}
      - {x: 0.34011173, y: 0.123751566}
      - {x: 0.21951471, y: 0.16047916}
--- !u!1001 &4534725582878520159
PrefabInstance:
  m_ObjectHideFlags: 0
  serializedVersion: 2
  m_Modification:
    m_TransformParent: {fileID: 0}
    m_Modifications:
    - target: {fileID: 1852770665594843469, guid: b6558947f38bd6349b0a7de03906e937, type: 3}
      propertyPath: iconSprite
      value: 
      objectReference: {fileID: 21300000, guid: d7a87e217779dd84f94858d58177a00d, type: 3}
    - target: {fileID: 2414494810064293916, guid: b6558947f38bd6349b0a7de03906e937, type: 3}
      propertyPath: m_Sprite
      value: 
      objectReference: {fileID: 21300000, guid: 81ec1e0341851764fa4d745d5f41b8b1, type: 3}
    - target: {fileID: 2634708172200301668, guid: b6558947f38bd6349b0a7de03906e937, type: 3}
      propertyPath: m_Name
      value: Bucket
      objectReference: {fileID: 0}
    - target: {fileID: 6989395609582882685, guid: b6558947f38bd6349b0a7de03906e937, type: 3}
      propertyPath: m_RootOrder
      value: 0
      objectReference: {fileID: 0}
    - target: {fileID: 6989395609582882685, guid: b6558947f38bd6349b0a7de03906e937, type: 3}
      propertyPath: m_LocalPosition.x
      value: 0
      objectReference: {fileID: 0}
    - target: {fileID: 6989395609582882685, guid: b6558947f38bd6349b0a7de03906e937, type: 3}
      propertyPath: m_LocalPosition.y
      value: 0
      objectReference: {fileID: 0}
    - target: {fileID: 6989395609582882685, guid: b6558947f38bd6349b0a7de03906e937, type: 3}
      propertyPath: m_LocalPosition.z
      value: 0
      objectReference: {fileID: 0}
    - target: {fileID: 6989395609582882685, guid: b6558947f38bd6349b0a7de03906e937, type: 3}
      propertyPath: m_LocalRotation.w
      value: 1
      objectReference: {fileID: 0}
    - target: {fileID: 6989395609582882685, guid: b6558947f38bd6349b0a7de03906e937, type: 3}
      propertyPath: m_LocalRotation.x
      value: 0
      objectReference: {fileID: 0}
    - target: {fileID: 6989395609582882685, guid: b6558947f38bd6349b0a7de03906e937, type: 3}
      propertyPath: m_LocalRotation.y
      value: 0
      objectReference: {fileID: 0}
    - target: {fileID: 6989395609582882685, guid: b6558947f38bd6349b0a7de03906e937, type: 3}
      propertyPath: m_LocalRotation.z
      value: 0
      objectReference: {fileID: 0}
    - target: {fileID: 6989395609582882685, guid: b6558947f38bd6349b0a7de03906e937, type: 3}
      propertyPath: m_LocalEulerAnglesHint.x
      value: 0
      objectReference: {fileID: 0}
    - target: {fileID: 6989395609582882685, guid: b6558947f38bd6349b0a7de03906e937, type: 3}
      propertyPath: m_LocalEulerAnglesHint.y
      value: 0
      objectReference: {fileID: 0}
    - target: {fileID: 6989395609582882685, guid: b6558947f38bd6349b0a7de03906e937, type: 3}
      propertyPath: m_LocalEulerAnglesHint.z
      value: 0
      objectReference: {fileID: 0}
    - target: {fileID: 9202502631959416758, guid: b6558947f38bd6349b0a7de03906e937, type: 3}
      propertyPath: m_Pitch
      value: 1.31
      objectReference: {fileID: 0}
    - target: {fileID: 9202502631959416758, guid: b6558947f38bd6349b0a7de03906e937, type: 3}
      propertyPath: m_audioClip
      value: 
      objectReference: {fileID: 8300000, guid: cfae3d9e9e229ce488c1f7fc2661c7cf, type: 3}
    m_RemovedComponents: []
  m_SourcePrefab: {fileID: 100100000, guid: b6558947f38bd6349b0a7de03906e937, type: 3}
--- !u!1 &1909185375474607931 stripped
GameObject:
  m_CorrespondingSourceObject: {fileID: 2634708172200301668, guid: b6558947f38bd6349b0a7de03906e937, type: 3}
  m_PrefabInstance: {fileID: 4534725582878520159}
  m_PrefabAsset: {fileID: 0}
