%YAML 1.1
%TAG !u! tag:unity3d.com,2011:
--- !u!1001 &4605893174022555360
PrefabInstance:
  m_ObjectHideFlags: 0
  serializedVersion: 2
  m_Modification:
    m_TransformParent: {fileID: 0}
    m_Modifications:
    - target: {fileID: -5272137941398229246, guid: d5c9d1d703da10b4d97fc27a8c8819d5, type: 3}
      propertyPath: weightTable.Array.size
      value: 4
      objectReference: {fileID: 0}
    - target: {fileID: -5272137941398229246, guid: d5c9d1d703da10b4d97fc27a8c8819d5, type: 3}
      propertyPath: stuffPrefabs.Array.size
      value: 4
      objectReference: {fileID: 0}
    - target: {fileID: -5272137941398229246, guid: d5c9d1d703da10b4d97fc27a8c8819d5, type: 3}
      propertyPath: weightTable.Array.data[0]
      value: 35
      objectReference: {fileID: 0}
    - target: {fileID: -5272137941398229246, guid: d5c9d1d703da10b4d97fc27a8c8819d5, type: 3}
      propertyPath: weightTable.Array.data[1]
      value: 30
      objectReference: {fileID: 0}
    - target: {fileID: -5272137941398229246, guid: d5c9d1d703da10b4d97fc27a8c8819d5, type: 3}
      propertyPath: weightTable.Array.data[2]
      value: 20
      objectReference: {fileID: 0}
    - target: {fileID: -5272137941398229246, guid: d5c9d1d703da10b4d97fc27a8c8819d5, type: 3}
      propertyPath: weightTable.Array.data[3]
      value: 15
      objectReference: {fileID: 0}
    - target: {fileID: -5272137941398229246, guid: d5c9d1d703da10b4d97fc27a8c8819d5, type: 3}
      propertyPath: stuffPrefabs.Array.data[0]
      value: 
      objectReference: {fileID: 19980249191711233, guid: ba5d296937ff16e40a210c4b5a818968, type: 3}
    - target: {fileID: -5272137941398229246, guid: d5c9d1d703da10b4d97fc27a8c8819d5, type: 3}
      propertyPath: stuffPrefabs.Array.data[1]
      value: 
      objectReference: {fileID: 7937676871439732612, guid: a8ebf323084ab5c499afc9606bec43fb, type: 3}
    - target: {fileID: -5272137941398229246, guid: d5c9d1d703da10b4d97fc27a8c8819d5, type: 3}
      propertyPath: stuffPrefabs.Array.data[2]
      value: 
      objectReference: {fileID: 4416635203294955567, guid: 6772382459aaad0449d692d4d08e86ef, type: 3}
    - target: {fileID: -5272137941398229246, guid: d5c9d1d703da10b4d97fc27a8c8819d5, type: 3}
      propertyPath: stuffPrefabs.Array.data[3]
      value: 
      objectReference: {fileID: 2146751195440269858, guid: 6a0bdeb9f430c274a92a4195acefd0ea, type: 3}
    - target: {fileID: 2046193160159450198, guid: d5c9d1d703da10b4d97fc27a8c8819d5, type: 3}
      propertyPath: text
      value: Rage quit!
      objectReference: {fileID: 0}
    - target: {fileID: 2046193160159450198, guid: d5c9d1d703da10b4d97fc27a8c8819d5, type: 3}
      propertyPath: eventName
      value: Rage quit!
      objectReference: {fileID: 0}
    - target: {fileID: 2046193160159450198, guid: d5c9d1d703da10b4d97fc27a8c8819d5, type: 3}
      propertyPath: eventLength
      value: 25
      objectReference: {fileID: 0}
    - target: {fileID: 2046193160159450198, guid: d5c9d1d703da10b4d97fc27a8c8819d5, type: 3}
      propertyPath: spawnTimeRate
      value: 1.5
      objectReference: {fileID: 0}
    - target: {fileID: 2046193160159450198, guid: d5c9d1d703da10b4d97fc27a8c8819d5, type: 3}
      propertyPath: lowerSpawnTimeRange
      value: 2
      objectReference: {fileID: 0}
    - target: {fileID: 2046193160159450198, guid: d5c9d1d703da10b4d97fc27a8c8819d5, type: 3}
      propertyPath: upperSpawnTimeRange
      value: 3
      objectReference: {fileID: 0}
    - target: {fileID: 2046193160159450198, guid: d5c9d1d703da10b4d97fc27a8c8819d5, type: 3}
      propertyPath: stuffPrefabs.Array.size
      value: 4
      objectReference: {fileID: 0}
    - target: {fileID: 2046193160159450198, guid: d5c9d1d703da10b4d97fc27a8c8819d5, type: 3}
      propertyPath: eventMessages.Array.size
      value: 4
      objectReference: {fileID: 0}
    - target: {fileID: 2046193160159450198, guid: d5c9d1d703da10b4d97fc27a8c8819d5, type: 3}
      propertyPath: stuffPrefabs.Array.data[0]
      value: 
      objectReference: {fileID: 4416635203294955567, guid: 6772382459aaad0449d692d4d08e86ef, type: 3}
    - target: {fileID: 2046193160159450198, guid: d5c9d1d703da10b4d97fc27a8c8819d5, type: 3}
      propertyPath: stuffPrefabs.Array.data[1]
      value: 
      objectReference: {fileID: 2146751195440269858, guid: 6a0bdeb9f430c274a92a4195acefd0ea, type: 3}
    - target: {fileID: 2046193160159450198, guid: d5c9d1d703da10b4d97fc27a8c8819d5, type: 3}
      propertyPath: stuffPrefabs.Array.data[2]
      value: 
      objectReference: {fileID: 7937676871439732612, guid: a8ebf323084ab5c499afc9606bec43fb, type: 3}
    - target: {fileID: 2046193160159450198, guid: d5c9d1d703da10b4d97fc27a8c8819d5, type: 3}
      propertyPath: stuffPrefabs.Array.data[3]
      value: 
      objectReference: {fileID: 19980249191711233, guid: ba5d296937ff16e40a210c4b5a818968, type: 3}
    - target: {fileID: 2046193160159450198, guid: d5c9d1d703da10b4d97fc27a8c8819d5, type: 3}
      propertyPath: eventMessages.Array.data[0]
      value: It's only game. Why you have to be mad?
      objectReference: {fileID: 0}
    - target: {fileID: 2046193160159450198, guid: d5c9d1d703da10b4d97fc27a8c8819d5, type: 3}
      propertyPath: eventMessages.Array.data[1]
      value: ez lol
      objectReference: {fileID: 0}
    - target: {fileID: 2046193160159450198, guid: d5c9d1d703da10b4d97fc27a8c8819d5, type: 3}
      propertyPath: eventMessages.Array.data[2]
      value: git gud
      objectReference: {fileID: 0}
    - target: {fileID: 2046193160159450198, guid: d5c9d1d703da10b4d97fc27a8c8819d5, type: 3}
      propertyPath: eventMessages.Array.data[3]
      value: Why are old computers and consoles just beige and grey?
      objectReference: {fileID: 0}
    - target: {fileID: 2046193160159450198, guid: d5c9d1d703da10b4d97fc27a8c8819d5, type: 3}
      propertyPath: eventMessages.Array.data[4]
      value: Why are old computers and consoles just beige and grey?
      objectReference: {fileID: 0}
    - target: {fileID: 6575160481929455885, guid: d5c9d1d703da10b4d97fc27a8c8819d5, type: 3}
      propertyPath: m_Name
      value: GamerEvent
      objectReference: {fileID: 0}
    - target: {fileID: 7970851944592882766, guid: d5c9d1d703da10b4d97fc27a8c8819d5, type: 3}
      propertyPath: m_RootOrder
      value: 0
      objectReference: {fileID: 0}
    - target: {fileID: 7970851944592882766, guid: d5c9d1d703da10b4d97fc27a8c8819d5, type: 3}
      propertyPath: m_LocalPosition.x
      value: 0
      objectReference: {fileID: 0}
    - target: {fileID: 7970851944592882766, guid: d5c9d1d703da10b4d97fc27a8c8819d5, type: 3}
      propertyPath: m_LocalPosition.y
      value: 0
      objectReference: {fileID: 0}
    - target: {fileID: 7970851944592882766, guid: d5c9d1d703da10b4d97fc27a8c8819d5, type: 3}
      propertyPath: m_LocalPosition.z
      value: 0
      objectReference: {fileID: 0}
    - target: {fileID: 7970851944592882766, guid: d5c9d1d703da10b4d97fc27a8c8819d5, type: 3}
      propertyPath: m_LocalRotation.w
      value: 1
      objectReference: {fileID: 0}
    - target: {fileID: 7970851944592882766, guid: d5c9d1d703da10b4d97fc27a8c8819d5, type: 3}
      propertyPath: m_LocalRotation.x
      value: 0
      objectReference: {fileID: 0}
    - target: {fileID: 7970851944592882766, guid: d5c9d1d703da10b4d97fc27a8c8819d5, type: 3}
      propertyPath: m_LocalRotation.y
      value: 0
      objectReference: {fileID: 0}
    - target: {fileID: 7970851944592882766, guid: d5c9d1d703da10b4d97fc27a8c8819d5, type: 3}
      propertyPath: m_LocalRotation.z
      value: 0
      objectReference: {fileID: 0}
    - target: {fileID: 7970851944592882766, guid: d5c9d1d703da10b4d97fc27a8c8819d5, type: 3}
      propertyPath: m_LocalEulerAnglesHint.x
      value: 0
      objectReference: {fileID: 0}
    - target: {fileID: 7970851944592882766, guid: d5c9d1d703da10b4d97fc27a8c8819d5, type: 3}
      propertyPath: m_LocalEulerAnglesHint.y
      value: 0
      objectReference: {fileID: 0}
    - target: {fileID: 7970851944592882766, guid: d5c9d1d703da10b4d97fc27a8c8819d5, type: 3}
      propertyPath: m_LocalEulerAnglesHint.z
      value: 0
      objectReference: {fileID: 0}
    m_RemovedComponents: []
  m_SourcePrefab: {fileID: 100100000, guid: d5c9d1d703da10b4d97fc27a8c8819d5, type: 3}
