%YAML 1.1
%TAG !u! tag:unity3d.com,2011:
--- !u!114 &11400000
MonoBehaviour:
  m_ObjectHideFlags: 0
  m_CorrespondingSourceObject: {fileID: 0}
  m_PrefabInstance: {fileID: 0}
  m_PrefabAsset: {fileID: 0}
  m_GameObject: {fileID: 0}
  m_Enabled: 1
  m_EditorHideFlags: 0
  m_Script: {fileID: 11500000, guid: f0522bcdf48c05b40836be6e9bd204b3, type: 3}
  m_Name: SpeedUp
  m_EditorClassIdentifier: 
  time: 20
  value: 400
  type: 3
  icon: {fileID: 21300000, guid: f64dceeeb4154a54a854e9d8a14a59c5, type: 3}
